Inference
…
  arrange(AVISIT) |>
  fill(
    any_of(c("ARMCD", "FEV1_BL", "RACE", "SEX", "WEIGHT")),
    .direction = "downup"
  ) |>
  mutate(FEV1 = na.locf(FEV1, na.rm = FALSE)) |>
  mutate(FEV1 = na.locf(FEV1, na.rm = FALSE, fromLast = TRUE)) |>
  ungroup() |>
  filter(!is.na(FEV1)) |>
  mutate(FEV1_CHG = FEV1 - FEV1_BL, USUBJID = as.character(USUBJID)) |>
  select(-FEV1) |>
  as_tibble() |>
  arrange(USUBJID, AVISIT)
data
#> # A tibble: 788 × 10
#>    USUBJID AVISIT ARMCD RACE        SEX   FEV1_BL WEIGHT VISITN VISITN2 FEV1_CHG
#>    <chr>   <fct>  <fct> <fct>       <fct>   <dbl>  <dbl>  <int>   <dbl>    <dbl>
#>  1 PT1     VIS1   TRT   Black or A… Fema…    25.3  0.677      1 -0.626     14.7 
#>  2 PT1     VIS2   TRT   Black or A… Fema…    25.3  0.801      2  0.184     14.7 
#>  3 PT1     VIS3   TRT   Black or A… Fema…    25.3  0.709      3 -0.836     14.7 
#>  4 PT1     VIS4   TRT   Black or A… Fema…    25.3  0.809      4  1.60      -4.79
#>  5 PT10    VIS1   PBO   Black or A… Fema…    57.7  0.795      1 -0.394    -12.7 
#>  6 PT10    VIS2   PBO   Black or A… Fema…    57.7  0.823      2 -0.0593   -12.7 
#>  7 PT10    VIS3   PBO   Black or A… Fema…    57.7  0.594      3  1.10     -12.7 
#>  8 PT10    VIS4   PBO   Black or A… Fema…    57.7  0.207      4  0.763    -12.7 
#>  9 PT100   VIS1   PBO   Black or A… Fema…    51.8  0.362      1  1.59     -17.2 
#> 10 PT100   VIS2   PBO   Black or A… Fema…    51.8  0.404      2  0.0450   -12.5 
#> # ℹ 778 more rows
…
