Simulation
…
library(brms.mmrm)
set.seed(0)
sim <- brm_simulate_simple(
  n_group = 3,
  n_patient = 100,
  n_time = 4
)

The data element has a classed tibble you
can directly supply to brm_formula() and
brm_model().

sim$data
#> # A tibble: 1,200 × 4
#>    response group   time   patient    
#>       <dbl> <chr>   <chr>  <chr>      
#>  1    1.11  group_1 time_1 patient_001
#>  2    2.15  group_1 time_2 patient_001
#>  3    2.54  group_1 time_3 patient_001
#>  4   -1.73  group_1 time_4 patient_001
#>  5    1.11  group_1 time_1 patient_002
#>  6    2.64  group_1 time_2 patient_002
#>  7    1.69  group_1 time_3 patient_002
#>  8    0.783 group_1 time_4 patient_002
#>  9    0.118 group_1 time_1 patient_003
#> 10    2.48  group_1 time_2 patient_003
#> # ℹ 1,190 more rows
…
2 Change from
baseline

brm_data_change() can convert the outcome variable from
raw response to change from baseline. This applies to real datasets
passed through [brm_data()] as well as simulated ones from
e.g. [brm_simulate_simple()]. The dataset above uses raw response with a
baseline time point of "time_1"

sim$data
#> # A tibble: 1,200 × 4
#>    response group   time   patient    
#>       <dbl> <chr>   <chr>  <chr>      
#>  1    1.11  group_1 time_1 patient_001
#>  2    2.15  group_1 time_2 patient_001
#>  3    2.54  group_1 time_3 patient_001
#>  4   -1.73  group_1 time_4 patient_001
#>  5    1.11  group_1 time_1 patient_002
#>  6    2.64  group_1 time_2 patient_002
#>  7    1.69  group_1 time_3 patient_002
#>  8    0.783 group_1 time_4 patient_002
#>  9    0.118 group_1 time_1 patient_003
#> 10    2.48  group_1 time_2 patient_003
#> # ℹ 1,190 more rows

brm_data_change() subtracts baseline, replaces the raw
response column with a new change from baseline column, adds a new
column for the original baseline raw response, and adjusts the internal
attributes of the classed object accordingly.

brm_data_change(
  data = sim$data,
  name_change = "new_change",
  name_baseline = "new_baseline"
)
#> # A tibble: 900 × 5
#>    new_change new_baseline group   time   patient    
#>         <dbl>        <dbl> <chr>   <chr>  <chr>      
#>  1      1.04         1.11  group_1 time_2 patient_001
#>  2      1.43         1.11  group_1 time_3 patient_001
#>  3     -2.84         1.11  group_1 time_4 patient_001
#>  4      1.53         1.11  group_1 time_2 patient_002
#>  5      0.576        1.11  group_1 time_3 patient_002
#>  6     -0.328        1.11  group_1 time_4 patient_002
#>  7      2.37         0.118 group_1 time_2 patient_003
#>  8      3.07         0.118 group_1 time_3 patient_003
#>  9     -1.14         0.118 group_1 time_4 patient_003
#> 10      1.57         1.29  group_1 time_2 patient_004
#> # ℹ 890 more rows
…
data <- brm_simulate_outline(
  n_group = 2,
  n_patient = 100,
  n_time = 4,
  rate_dropout = 0.3
)

data
#> # A tibble: 800 × 5
#>    response missing group   time   patient    
#>       <dbl> <lgl>   <chr>   <chr>  <chr>      
#>  1       NA FALSE   group_1 time_1 patient_001
#>  2       NA TRUE    group_1 time_2 patient_001
#>  3       NA TRUE    group_1 time_3 patient_001
#>  4       NA TRUE    group_1 time_4 patient_001
#>  5       NA FALSE   group_1 time_1 patient_002
#>  6       NA FALSE   group_1 time_2 patient_002
#>  7       NA TRUE    group_1 time_3 patient_002
#>  8       NA TRUE    group_1 time_4 patient_002
#>  9       NA FALSE   group_1 time_1 patient_003
#> 10       NA FALSE   group_1 time_2 patient_003
#> # ℹ 790 more rows
Optionally add random continuous covariates
brm_simulate_continuous() and random categorical covariates
using brm_simulate_categorical(). In each case, the
covariates are non-time-varying, which means each patient gets only one
unique value.

data <- data |>
  brm_simulate_continuous(names = c("biomarker1", "biomarker2")) |>
  brm_simulate_categorical(
    names = c("status1", "status2"),
    levels = c("present", "absent")
  )

data
#> # A tibble: 800 × 9
#>    response missing group   time   patient biomarker1 biomarker2 status1 status2
#>       <dbl> <lgl>   <chr>   <chr>  <chr>        <dbl>      <dbl> <chr>   <chr>  
#>  1       NA FALSE   group_1 time_1 patien…      0.328     -0.655 present absent 
#>  2       NA TRUE    group_1 time_2 patien…      0.328     -0.655 present absent 
#>  3       NA TRUE    group_1 time_3 patien…      0.328     -0.655 present absent 
#>  4       NA TRUE    group_1 time_4 patien…      0.328     -0.655 present absent 
#>  5       NA FALSE   group_1 time_1 patien…      1.04      -0.779 absent  absent 
#>  6       NA FALSE   group_1 time_2 patien…      1.04      -0.779 absent  absent 
#>  7       NA TRUE    group_1 time_3 patien…      1.04      -0.779 absent  absent 
#>  8       NA TRUE    group_1 time_4 patien…      1.04      -0.779 absent  absent 
#>  9       NA FALSE   group_1 time_1 patien…      0.717     -0.954 present absent 
#> 10       NA FALSE   group_1 time_2 patien…      0.717     -0.954 present absent 
#> # ℹ 790 more rows
…
names(sim)
#> [1] "data"         "model"        "model_matrix" "outcome"      "parameters"

In addition, sim$data has a copy of the original
dataset, but with the outcome variable taken from the final draw from
the prior predictive distribution. In addition, the missingness pattern
is automatically applied so that sim$data$response is
NA_real_ whenever sim$data$missing equals
TRUE.

sim$data
#> # A tibble: 800 × 9
#>    response missing group   time   patient biomarker1 biomarker2 status1 status2
#>       <dbl> <lgl>   <chr>   <chr>  <chr>        <dbl>      <dbl> <chr>   <chr>  
#>  1  -0.0490 FALSE   group_1 time_1 patien…      0.328     -0.655 present absent 
#>  2  NA      TRUE    group_1 time_2 patien…      0.328     -0.655 present absent 
#>  3  NA      TRUE    group_1 time_3 patien…      0.328     -0.655 present absent 
#>  4  NA      TRUE    group_1 time_4 patien…      0.328     -0.655 present absent 
#>  5   7.19   FALSE   group_1 time_1 patien…      1.04      -0.779 absent  absent 
#>  6   3.18   FALSE   group_1 time_2 patien…      1.04      -0.779 absent  absent 
#>  7  NA      TRUE    group_1 time_3 patien…      1.04      -0.779 absent  absent 
#>  8  NA      TRUE    group_1 time_4 patien…      1.04      -0.779 absent  absent 
#>  9  15.6    FALSE   group_1 time_1 patien…      0.717     -0.954 present absent 
#> 10   0.203  FALSE   group_1 time_2 patien…      0.717     -0.954 present absent 
#> # ℹ 790 more rows
…
