Usage
…
library(brms.mmrm)
library(dplyr)
library(magrittr)
set.seed(0L)
raw_data <- brm_simulate_simple(
  n_group = 3,
  n_patient = 100,
  n_time = 4
) |>
  extract2("data") |>
  brm_simulate_continuous(c("biomarker1", "biomarker2", "biomarker3"))

raw_data
#> # A tibble: 1,200 × 7
#>    response group   time   patient     biomarker1 biomarker2 biomarker3
#>       <dbl> <chr>   <chr>  <chr>            <dbl>      <dbl>      <dbl>
#>  1    1.11  group_1 time_1 patient_001      1.31      -0.361      1.52 
#>  2    2.15  group_1 time_2 patient_001      1.31      -0.361      1.52 
#>  3    2.54  group_1 time_3 patient_001      1.31      -0.361      1.52 
#>  4   -1.73  group_1 time_4 patient_001      1.31      -0.361      1.52 
#>  5    1.11  group_1 time_1 patient_002      0.107     -2.44      -0.139
#>  6    2.64  group_1 time_2 patient_002      0.107     -2.44      -0.139
#>  7    1.69  group_1 time_3 patient_002      0.107     -2.44      -0.139
#>  8    0.783 group_1 time_4 patient_002      0.107     -2.44      -0.139
#>  9    0.118 group_1 time_1 patient_003      1.44      -0.419     -1.54 
#> 10    2.48  group_1 time_2 patient_003      1.44      -0.419     -1.54 
#> # ℹ 1,190 more rows
…
data <- brm_data(
  data = raw_data,
  outcome = "response",
  role = "response",
  group = "group",
  patient = "patient",
  time = "time",
  covariates = c("biomarker1", "biomarker2"),
  reference_group = "group_1",
  reference_time = "time_1"
)

data
#> # A tibble: 1,200 × 6
#>    response group   time   patient     biomarker1 biomarker2
#>       <dbl> <chr>   <chr>  <chr>            <dbl>      <dbl>
#>  1    1.11  group_1 time_1 patient_001      1.31      -0.361
#>  2    2.15  group_1 time_2 patient_001      1.31      -0.361
#>  3    2.54  group_1 time_3 patient_001      1.31      -0.361
#>  4   -1.73  group_1 time_4 patient_001      1.31      -0.361
#>  5    1.11  group_1 time_1 patient_002      0.107     -2.44 
#>  6    2.64  group_1 time_2 patient_002      0.107     -2.44 
#>  7    1.69  group_1 time_3 patient_002      0.107     -2.44 
#>  8    0.783 group_1 time_4 patient_002      0.107     -2.44 
#>  9    0.118 group_1 time_1 patient_003      1.44      -0.419
#> 10    2.48  group_1 time_2 patient_003      1.44      -0.419
#> # ℹ 1,190 more rows
…
The brm_marginal_summaries() function produces posterior
summaries of these marginals, and it includes the Monte Carlo standard
error (MCSE) of each estimate.

summaries <- brm_marginal_summaries(draws, level = 0.95)

summaries
#> # A tibble: 165 × 6
#>    marginal         statistic group   time     value    mcse
#>    <chr>            <chr>     <chr>   <chr>    <dbl>   <dbl>
#>  1 difference_group lower     group_2 time_2 -0.238  0.00963
#>  2 difference_group lower     group_2 time_3 -0.636  0.00938
#>  3 difference_group lower     group_2 time_4 -0.540  0.00959
#>  4 difference_group lower     group_3 time_2 -0.250  0.00661
#>  5 difference_group lower     group_3 time_3 -0.679  0.00935
#>  6 difference_group lower     group_3 time_4 -0.713  0.0103 
#>  7 difference_group mean      group_2 time_2  0.0441 0.00329
#>  8 difference_group mean      group_2 time_3 -0.159  0.00624
#>  9 difference_group mean      group_2 time_4 -0.0616 0.00593
#> 10 difference_group mean      group_3 time_2  0.0279 0.00312
#> # ℹ 155 more rows
…
Finally, brm_marignal_data() computes marginal means and
confidence intervals on the response variable in the data, along with
other summary statistics.

summaries_data <- brm_marginal_data(data = data, level = 0.95)

summaries_data
#> # A tibble: 84 × 4
#>    statistic group   time     value
#>    <chr>     <chr>   <chr>    <dbl>
#>  1 lower     group_1 time_1  1.40  
#>  2 lower     group_1 time_2  2.71  
#>  3 lower     group_1 time_3  1.91  
#>  4 lower     group_1 time_4  0.0151
#>  5 lower     group_2 time_1 -0.150 
#>  6 lower     group_2 time_2  1.23  
#>  7 lower     group_2 time_3  0.218 
#>  8 lower     group_2 time_4 -1.59  
#>  9 lower     group_3 time_1  1.57  
#> 10 lower     group_3 time_2  2.95  
#> # ℹ 74 more rows
…
